{
  "openapi": "3.0.0",
  "paths": {
    "/api/v1": {
      "get": {
        "operationId": "AppController_getAPIStatus",
        "summary": "Get API Status",
        "parameters": [],
        "responses": {
          "200": {
            "description": "API status retrieved successfully",
            "content": {
              "application/json": {
                "schema": {
                  "$ref": "#/components/schemas/APIStatus"
                }
              }
            }
          }
        },
        "tags": [
          "API Status"
        ]
      }
    },
    "/api/v1/client-prospect": {
      "post": {
        "operationId": "ClientProspectController_addClientProspect",
        "summary": "Add Client Prospect with Files",
        "parameters": [],
        "requestBody": {
          "required": true,
          "content": {
            "multipart/form-data": {
              "schema": {
                "$ref": "#/components/schemas/ClientProspectAndFiles"
              }
            }
          }
        },
        "responses": {
          "201": {
            "description": ""
          }
        },
        "tags": [
          "Client Prospect"
        ]
      }
    },
    "/api/v1/client-prospect/otp": {
      "post": {
        "operationId": "ClientProspectController_optGenerator",
        "summary": "Generate OTP",
        "parameters": [],
        "requestBody": {
          "required": true,
          "description": "Data for OTP generation",
          "content": {
            "application/json": {
              "schema": {
                "$ref": "#/components/schemas/OTPData"
              }
            }
          }
        },
        "responses": {
          "201": {
            "description": ""
          }
        },
        "tags": [
          "Client Prospect"
        ]
      }
    },
    "/api/v1/client-prospect/otp-by-email": {
      "post": {
        "operationId": "ClientProspectController_optGeneratorByEmail",
        "summary": "Generate OTP by Email",
        "parameters": [],
        "requestBody": {
          "required": true,
          "description": "Data for OTP generation by email",
          "content": {
            "application/json": {
              "schema": {
                "$ref": "#/components/schemas/OTPData"
              }
            }
          }
        },
        "responses": {
          "201": {
            "description": ""
          }
        },
        "tags": [
          "Client Prospect"
        ]
      }
    },
    "/api/v1/client-prospect/otp/{email}/validate/{opt}": {
      "get": {
        "operationId": "ClientProspectController_validateOpt",
        "summary": "Validate OTP",
        "parameters": [
          {
            "name": "opt",
            "required": true,
            "in": "path",
            "description": "OTP code",
            "example": "123456",
            "schema": {}
          },
          {
            "name": "email",
            "required": true,
            "in": "path",
            "description": "Email of the client",
            "example": "example@email.com",
            "schema": {}
          }
        ],
        "responses": {
          "200": {
            "description": ""
          }
        },
        "tags": [
          "Client Prospect"
        ]
      }
    },
    "/api/v1/client-prospect/applications/{email}": {
      "get": {
        "operationId": "ClientProspectController_getUserApplications",
        "summary": "Get User Applications",
        "parameters": [
          {
            "name": "email",
            "required": true,
            "in": "path",
            "description": "Email of the client",
            "example": "example@email.com",
            "schema": {}
          }
        ],
        "responses": {
          "200": {
            "description": "Successful response",
            "content": {
              "application/json": {
                "schema": {
                  "$ref": "#/components/schemas/ClientResponse"
                }
              }
            }
          },
          "400": {
            "description": "Incorrect OPT code or client not found"
          }
        },
        "tags": [
          "Client Prospect"
        ]
      }
    }
  },
  "info": {
    "title": "Inverst Tu Casa",
    "description": "Inverst Tu Casa API backend functionality and use",
    "version": "1.0",
    "contact": {}
  },
  "tags": [
    {
      "name": "InverstTuCasa",
      "description": ""
    }
  ],
  "servers": [],
  "components": {
    "schemas": {
      "APIStatus": {
        "type": "object",
        "properties": {
          "message": {
            "type": "string",
            "description": "Status message",
            "example": "Management API active"
          },
          "code": {
            "type": "number",
            "description": "HTTP status code",
            "example": 200
          },
          "date": {
            "format": "date-time",
            "type": "string",
            "description": "Date of the status",
            "example": "2023-08-25T12:34:56Z"
          }
        },
        "required": [
          "message",
          "code",
          "date"
        ]
      },
      "ClientProspectBODY": {
        "type": "object",
        "properties": {
          "email": {
            "type": "string",
            "description": "Email of the client",
            "example": "example@email.com"
          },
          "term1": {
            "type": "string",
            "description": "Value of term1",
            "example": "Term 1 value"
          },
          "term2": {
            "type": "string",
            "description": "Value of term2",
            "example": "Term 2 value"
          },
          "address": {
            "type": "string",
            "description": "Address of the client",
            "example": "123 Main St"
          },
          "apt_status": {
            "type": "boolean",
            "description": "Apartment status",
            "example": true
          },
          "seniority": {
            "type": "string",
            "description": "Seniority",
            "example": "Senior"
          },
          "seniority_aprox": {
            "type": "string",
            "description": "Approximate seniority",
            "example": "10 years"
          },
          "mt2": {
            "type": "number",
            "description": "Square meters",
            "example": 100
          },
          "mt2_aprox": {
            "type": "number",
            "description": "Approximate square meters",
            "example": 90
          },
          "have_gray_work": {
            "type": "boolean",
            "description": "Have gray work",
            "example": true
          },
          "apt_type": {
            "type": "string",
            "description": "Apartment type",
            "example": "Luxury"
          },
          "room_bathroom_count": {
            "type": "number",
            "description": "Room bathroom count",
            "example": 3
          },
          "room_without_bathroom_count": {
            "type": "number",
            "description": "Room without bathroom count",
            "example": 2
          },
          "room_count": {
            "type": "number",
            "description": "Total room count",
            "example": 5
          },
          "have_garage": {
            "type": "boolean",
            "description": "Have garage",
            "example": true
          },
          "garage_count": {
            "type": "number",
            "description": "Garage count",
            "example": 2
          },
          "garage_type": {
            "type": "string",
            "description": "Garage type",
            "example": "Underground"
          },
          "apt_stratum": {
            "type": "number",
            "description": "Apartment stratum",
            "example": 5
          },
          "apt_additional_garage": {
            "type": "boolean",
            "description": "Additional garage",
            "example": true
          },
          "apt_additional_laundry": {
            "type": "boolean",
            "description": "Additional laundry",
            "example": true
          },
          "apt_additional_communal_living": {
            "type": "boolean",
            "description": "Additional communal living",
            "example": true
          },
          "apt_additional_electric_plant": {
            "type": "boolean",
            "description": "Additional electric plant",
            "example": true
          },
          "apt_additional_study": {
            "type": "boolean",
            "description": "Additional study",
            "example": true
          },
          "apt_additional_green_zone": {
            "type": "boolean",
            "description": "Additional green zone",
            "example": true
          },
          "apt_additional_kids_zone": {
            "type": "boolean",
            "description": "Additional kids zone",
            "example": true
          },
          "apt_additional_bbq_zone": {
            "type": "boolean",
            "description": "Additional BBQ zone",
            "example": true
          },
          "apt_additional_gate": {
            "type": "boolean",
            "description": "Additional gate",
            "example": true
          },
          "apt_additional_humid_zone": {
            "type": "boolean",
            "description": "Additional humid zone",
            "example": true
          },
          "apt_additional_elevator": {
            "type": "boolean",
            "description": "Additional elevator",
            "example": true
          },
          "management_value": {
            "type": "number",
            "description": "Management value",
            "example": 500
          },
          "apt_value": {
            "type": "number",
            "description": "Apartment value",
            "example": 100000
          },
          "has_assessment": {
            "type": "boolean",
            "description": "Has assessment",
            "example": true
          },
          "assessment_type": {
            "type": "string",
            "description": "Assessment type",
            "example": "Bank"
          },
          "assessment_bank": {
            "type": "string",
            "description": "Assessment bank",
            "example": "ABC Bank"
          },
          "assessment_value": {
            "type": "number",
            "description": "Assessment value",
            "example": 75000
          },
          "sell_motivation": {
            "type": "string",
            "description": "Sell motivation",
            "example": "Relocation"
          },
          "is_elegible": {
            "type": "boolean",
            "description": "Is eligible",
            "example": true
          }
        },
        "required": [
          "email",
          "term1",
          "term2",
          "address",
          "apt_status",
          "seniority",
          "seniority_aprox",
          "mt2",
          "mt2_aprox",
          "have_gray_work",
          "apt_type",
          "room_bathroom_count",
          "room_without_bathroom_count",
          "room_count",
          "have_garage",
          "garage_count",
          "garage_type",
          "apt_stratum",
          "apt_additional_garage",
          "apt_additional_laundry",
          "apt_additional_communal_living",
          "apt_additional_electric_plant",
          "apt_additional_study",
          "apt_additional_green_zone",
          "apt_additional_kids_zone",
          "apt_additional_bbq_zone",
          "apt_additional_gate",
          "apt_additional_humid_zone",
          "apt_additional_elevator",
          "management_value",
          "apt_value",
          "has_assessment",
          "assessment_type",
          "assessment_bank",
          "assessment_value",
          "sell_motivation",
          "is_elegible"
        ]
      },
      "ClientProspectAndFiles": {
        "type": "object",
        "properties": {
          "clientProspect": {
            "description": "Client prospect data",
            "allOf": [
              {
                "$ref": "#/components/schemas/ClientProspectBODY"
              }
            ]
          },
          "files": {
            "type": "array",
            "description": "Uploaded files",
            "items": {
              "type": "string",
              "format": "binary"
            }
          }
        },
        "required": [
          "clientProspect",
          "files"
        ]
      },
      "OTPData": {
        "type": "object",
        "properties": {
          "email": {
            "type": "string",
            "description": "Email of the client",
            "example": "example@email.com"
          },
          "name": {
            "type": "string",
            "description": "Name of the client",
            "example": "John Doe"
          },
          "phone": {
            "type": "string",
            "description": "Phone number of the client",
            "example": "1234567890"
          },
          "found_throught": {
            "type": "string",
            "description": "Source through which the client was found",
            "example": "Advertisement"
          },
          "cookiePolicyAccepted": {
            "type": "string",
            "description": "Cookie policy acceptance",
            "example": "true"
          }
        },
        "required": [
          "email",
          "name",
          "phone",
          "found_throught",
          "cookiePolicyAccepted"
        ]
      },
      "ApplicationResponse": {
        "type": "object",
        "properties": {
          "id": {
            "type": "string",
            "description": "ID of the application",
            "example": "1"
          },
          "friendlyID": {
            "type": "string",
            "description": "Friendly ID of the application",
            "example": "xyz789"
          },
          "term1": {
            "type": "boolean",
            "description": "Value of term1",
            "example": true
          },
          "term2": {
            "type": "boolean",
            "description": "Value of term2",
            "example": false
          },
          "address": {
            "type": "string",
            "description": "Address of the application",
            "example": "123 Main St"
          },
          "apt_status": {
            "type": "string",
            "description": "Status of the apartment",
            "example": "Vacant"
          },
          "seniority": {
            "type": "number",
            "description": "Seniority value",
            "example": 3
          },
          "seniority_aprox": {
            "type": "boolean",
            "description": "Whether seniority is approximate",
            "example": true
          },
          "mt2": {
            "type": "number",
            "description": "Area in square meters",
            "example": 120
          },
          "mt2_aprox": {
            "type": "boolean",
            "description": "Whether area is approximate",
            "example": false
          },
          "have_gray_work": {
            "type": "boolean",
            "description": "Whether there is gray work",
            "example": true
          },
          "apt_type": {
            "type": "string",
            "description": "Type of the apartment",
            "example": "2-bedroom"
          },
          "room_bathroom_count": {
            "type": "number",
            "description": "Count of rooms with attached bathrooms",
            "example": 2
          },
          "room_without_bathroom_count": {
            "type": "number",
            "description": "Count of rooms without attached bathrooms",
            "example": 1
          },
          "room_count": {
            "type": "number",
            "description": "Total room count",
            "example": 3
          },
          "have_garage": {
            "type": "boolean",
            "description": "Whether the apartment has a garage",
            "example": true
          },
          "garage_count": {
            "type": "number",
            "description": "Count of garage spaces",
            "example": 2
          },
          "garage_type": {
            "type": "string",
            "description": "Type of the garage",
            "example": "Underground"
          },
          "apt_stratum": {
            "type": "number",
            "description": "Stratum of the apartment",
            "example": 5
          },
          "apt_additional_garage": {
            "type": "boolean",
            "description": "Whether there is an additional garage",
            "example": true
          },
          "apt_additional_laundry": {
            "type": "boolean",
            "description": "Whether there is additional laundry facility",
            "example": true
          },
          "apt_additional_communal_living": {
            "type": "boolean",
            "description": "Whether there is additional communal living space",
            "example": true
          },
          "apt_additional_electric_plant": {
            "type": "boolean",
            "description": "Whether there is an additional electric plant",
            "example": true
          },
          "apt_additional_study": {
            "type": "boolean",
            "description": "Whether there is an additional study room",
            "example": true
          },
          "apt_additional_green_zone": {
            "type": "boolean",
            "description": "Whether there is an additional green zone",
            "example": true
          },
          "apt_additional_kids_zone": {
            "type": "boolean",
            "description": "Whether there is an additional kids zone",
            "example": true
          },
          "apt_additional_bbq_zone": {
            "type": "boolean",
            "description": "Whether there is an additional BBQ zone",
            "example": true
          },
          "apt_additional_gate": {
            "type": "boolean",
            "description": "Whether there is an additional gate",
            "example": true
          },
          "apt_additional_humid_zone": {
            "type": "boolean",
            "description": "Whether there is an additional humid zone",
            "example": true
          },
          "apt_additional_elevator": {
            "type": "boolean",
            "description": "Whether there is an additional elevator",
            "example": true
          },
          "management_value": {
            "type": "number",
            "description": "Management value",
            "example": 500
          },
          "apt_value": {
            "type": "number",
            "description": "Apartment value",
            "example": 150000
          },
          "has_assessment": {
            "type": "boolean",
            "description": "Whether the application has an assessment",
            "example": true
          },
          "assessment_type": {
            "type": "boolean",
            "description": "Type of the assessment",
            "example": true
          },
          "assessment_bank": {
            "type": "string",
            "description": "Bank associated with the assessment",
            "example": "ABC Bank"
          },
          "assessment_value": {
            "type": "number",
            "description": "Value of the assessment",
            "example": 1000
          },
          "sell_motivation": {
            "type": "string",
            "description": "Motivation to sell",
            "example": "Moving to a new city"
          },
          "is_elegible": {
            "type": "boolean",
            "description": "Value indicating if the application is eligible",
            "example": true
          },
          "join_date": {
            "format": "date-time",
            "type": "string",
            "description": "Join date of the application",
            "example": "2023-08-25T10:00:00Z"
          }
        },
        "required": [
          "id",
          "friendlyID",
          "term1",
          "term2",
          "address",
          "apt_status",
          "seniority",
          "seniority_aprox",
          "mt2",
          "mt2_aprox",
          "have_gray_work",
          "apt_type",
          "room_bathroom_count",
          "room_without_bathroom_count",
          "room_count",
          "have_garage",
          "garage_count",
          "garage_type",
          "apt_stratum",
          "apt_additional_garage",
          "apt_additional_laundry",
          "apt_additional_communal_living",
          "apt_additional_electric_plant",
          "apt_additional_study",
          "apt_additional_green_zone",
          "apt_additional_kids_zone",
          "apt_additional_bbq_zone",
          "apt_additional_gate",
          "apt_additional_humid_zone",
          "apt_additional_elevator",
          "management_value",
          "apt_value",
          "has_assessment",
          "assessment_type",
          "assessment_bank",
          "assessment_value",
          "sell_motivation",
          "is_elegible",
          "join_date"
        ]
      },
      "ClientResponse": {
        "type": "object",
        "properties": {
          "id": {
            "type": "string",
            "description": "ID of the client",
            "example": "1"
          },
          "friendlyID": {
            "type": "string",
            "description": "Friendly ID of the client",
            "example": "abc123"
          },
          "applications": {
            "description": "Applications associated with the client",
            "type": "array",
            "items": {
              "$ref": "#/components/schemas/ApplicationResponse"
            }
          },
          "name": {
            "type": "string",
            "description": "Name of the client",
            "example": "John Doe"
          },
          "email": {
            "type": "string",
            "description": "Email of the client",
            "example": "john@example.com"
          },
          "phone": {
            "type": "string",
            "description": "Phone number of the client",
            "example": "123-456-7890"
          },
          "found_throught": {
            "type": "string",
            "description": "How the client found out about the service",
            "example": "Online Ad"
          },
          "otp_code": {
            "type": "string",
            "description": "OTP code for verification",
            "example": "123456"
          },
          "join_date": {
            "format": "date-time",
            "type": "string",
            "description": "Join date of the client",
            "example": "2023-08-25T10:00:00Z"
          },
          "cookie_policy_accepted": {
            "type": "boolean",
            "description": "Whether the cookie policy has been accepted",
            "example": true
          }
        },
        "required": [
          "id",
          "friendlyID",
          "applications",
          "name",
          "email",
          "phone",
          "found_throught",
          "otp_code",
          "join_date",
          "cookie_policy_accepted"
        ]
      },
      "MailDTO": {
        "type": "object",
        "properties": {}
      }
    }
  }
}